{
  "project_info": {
    "project_number": "85787184518",
    "firebase_url": "https://orioks.firebaseio.com",
    "project_id": "orioks",
    "storage_bucket": "orioks.appspot.com"
  },
  "client": [
    {
      "client_info": {
        "mobilesdk_app_id": "1:85787184518:android:629249f85cd27db2",
        "android_client_info": {
          "package_name": "ru.endlesscode.miet.orioks"
        }
      },
      "oauth_client": [
        {
          "client_id": "85787184518-3kjum642d1gfdsbqf5ra0ks18jfil6qj.apps.googleusercontent.com",
          "client_type": 1,
          "android_info": {
            "package_name": "ru.endlesscode.miet.orioks",
            "certificate_hash": "5aaec4c6a93665d88a43d3614ed2c98b79ee0b8a"
          }
        },
        {
          "client_id": "85787184518-1j92f2t90m42gvdeu4q1mqrqielo12m5.apps.googleusercontent.com",
          "client_type": 3
        }
      ],
      "api_key": [
        {
          "current_key": "AIzaSyByVpkxujQG4zRj6XIgDqKiw56iut9b01I"
        }
      ],
      "services": {
        "appinvite_service": {
          "other_platform_oauth_client": [
            {
              "client_id": "85787184518-1j92f2t90m42gvdeu4q1mqrqielo12m5.apps.googleusercontent.com",
              "client_type": 3
            }
          ]
        }
      }
    },
    {
      "client_info": {
        "mobilesdk_app_id": "1:85787184518:android:83a61cac4dca71e7",
        "android_client_info": {
          "package_name": "ru.eva.miet.orioks"
        }
      },
      "oauth_client": [
        {
          "client_id": "85787184518-q6sieq40vv9hgvmi3h3a7t25dgi3a8c2.apps.googleusercontent.com",
          "client_type": 1,
          "android_info": {
            "package_name": "ru.eva.miet.orioks",
            "certificate_hash": "5aaec4c6a93665d88a43d3614ed2c98b79ee0b8a"
          }
        },
        {
          "client_id": "85787184518-1j92f2t90m42gvdeu4q1mqrqielo12m5.apps.googleusercontent.com",
          "client_type": 3
        }
      ],
      "api_key": [
        {
          "current_key": "AIzaSyByVpkxujQG4zRj6XIgDqKiw56iut9b01I"
        }
      ],
      "services": {
        "appinvite_service": {
          "other_platform_oauth_client": [
            {
              "client_id": "85787184518-1j92f2t90m42gvdeu4q1mqrqielo12m5.apps.googleusercontent.com",
              "client_type": 3
            }
          ]
        }
      }
    }
  ],
  "configuration_version": "1"
}